simulation/qsim/four_bit_pc.msim.vcd
$comment
	File created using the following command:
		vcd file four_bit_pc.msim.vcd -direction
$end
$date
	Thu Apr  1 14:01:26 2021
$end
$version
	ModelSim Version 2020.1
$end
$timescale
	1ps
$end

$scope module four_bit_pc_vlg_vec_tst $end
$var reg 4 ! A_in [3:0] $end
$var reg 4 " BYTE [3:0] $end
$var reg 4 # B_in [3:0] $end
$var reg 1 $ clk $end
$var wire 1 % A [3] $end
$var wire 1 & A [2] $end
$var wire 1 ' A [1] $end
$var wire 1 ( A [0] $end
$var wire 1 ) Addr [3] $end
$var wire 1 * Addr [2] $end
$var wire 1 + Addr [1] $end
$var wire 1 , Addr [0] $end
$var wire 1 - B [3] $end
$var wire 1 . B [2] $end
$var wire 1 / B [1] $end
$var wire 1 0 B [0] $end
$var wire 1 1 C [3] $end
$var wire 1 2 C [2] $end
$var wire 1 3 C [1] $end
$var wire 1 4 C [0] $end
$var wire 1 5 HLT $end
$var wire 1 6 IP [3] $end
$var wire 1 7 IP [2] $end
$var wire 1 8 IP [1] $end
$var wire 1 9 IP [0] $end
$var wire 1 : OUTPORT [3] $end
$var wire 1 ; OUTPORT [2] $end
$var wire 1 < OUTPORT [1] $end
$var wire 1 = OUTPORT [0] $end
$var wire 1 > SF $end
$var wire 1 ? SP [3] $end
$var wire 1 @ SP [2] $end
$var wire 1 A SP [1] $end
$var wire 1 B SP [0] $end
$var wire 1 C ZF $end

$scope module i1 $end
$var wire 1 D gnd $end
$var wire 1 E vcc $end
$var wire 1 F unknown $end
$var tri1 1 G devclrn $end
$var tri1 1 H devpor $end
$var tri1 1 I devoe $end
$var wire 1 J A[0]~output_o $end
$var wire 1 K A[1]~output_o $end
$var wire 1 L A[2]~output_o $end
$var wire 1 M A[3]~output_o $end
$var wire 1 N B[0]~output_o $end
$var wire 1 O B[1]~output_o $end
$var wire 1 P B[2]~output_o $end
$var wire 1 Q B[3]~output_o $end
$var wire 1 R C[0]~output_o $end
$var wire 1 S C[1]~output_o $end
$var wire 1 T C[2]~output_o $end
$var wire 1 U C[3]~output_o $end
$var wire 1 V Addr[0]~output_o $end
$var wire 1 W Addr[1]~output_o $end
$var wire 1 X Addr[2]~output_o $end
$var wire 1 Y Addr[3]~output_o $end
$var wire 1 Z SF~output_o $end
$var wire 1 [ ZF~output_o $end
$var wire 1 \ HLT~output_o $end
$var wire 1 ] IP[0]~output_o $end
$var wire 1 ^ IP[1]~output_o $end
$var wire 1 _ IP[2]~output_o $end
$var wire 1 ` IP[3]~output_o $end
$var wire 1 a OUTPORT[0]~output_o $end
$var wire 1 b OUTPORT[1]~output_o $end
$var wire 1 c OUTPORT[2]~output_o $end
$var wire 1 d OUTPORT[3]~output_o $end
$var wire 1 e SP[0]~output_o $end
$var wire 1 f SP[1]~output_o $end
$var wire 1 g SP[2]~output_o $end
$var wire 1 h SP[3]~output_o $end
$var wire 1 i clk~input_o $end
$var wire 1 j clk~inputclkctrl_outclk $end
$var wire 1 k A_in[1]~input_o $end
$var wire 1 l A_in[2]~input_o $end
$var wire 1 m A_in[3]~input_o $end
$var wire 1 n load~feeder_combout $end
$var wire 1 o load~q $end
$var wire 1 p C[2]~22_combout $end
$var wire 1 q SF~0_combout $end
$var wire 1 r ZF~12_combout $end
$var wire 1 s ZF~13_combout $end
$var wire 1 t STACK~2_combout $end
$var wire 1 u ZF~3_combout $end
$var wire 1 v A_in[0]~input_o $end
$var wire 1 w A~2_combout $end
$var wire 1 x B_in[0]~input_o $end
$var wire 1 y BYTE[0]~input_o $end
$var wire 1 z Equal0~0_combout $end
$var wire 1 { B~22_combout $end
$var wire 1 | Equal0~1_combout $end
$var wire 1 } B~12_combout $end
$var wire 1 ~ B~13_combout $end
$var wire 1 !! B[0]~reg0_q $end
$var wire 1 "! B~8_combout $end
$var wire 1 #! Add1~0_combout $end
$var wire 1 $! ZF~0_combout $end
$var wire 1 %! BYTE[1]~input_o $end
$var wire 1 &! B[1]~14_combout $end
$var wire 1 '! B[1]~15_combout $end
$var wire 1 (! Addr~3_combout $end
$var wire 1 )! Addr[0]~4_combout $end
$var wire 1 *! Equal0~2_combout $end
$var wire 1 +! C[2]~19_combout $end
$var wire 1 ,! Addr[0]~2_combout $end
$var wire 1 -! Addr[2]~reg0_q $end
$var wire 1 .! Addr[0]~reg0_q $end
$var wire 1 /! WideOr2~0_combout $end
$var wire 1 0! B~16_combout $end
$var wire 1 1! B~17_combout $end
$var wire 1 2! B[1]~reg0_q $end
$var wire 1 3! B_in[1]~input_o $end
$var wire 1 4! B~9_combout $end
$var wire 1 5! Add1~1 $end
$var wire 1 6! Add1~2_combout $end
$var wire 1 7! B_in[3]~input_o $end
$var wire 1 8! BYTE[3]~input_o $end
$var wire 1 9! Addr[3]~reg0feeder_combout $end
$var wire 1 :! Addr[3]~reg0_q $end
$var wire 1 ;! Decoder1~0_combout $end
$var wire 1 <! B~20_combout $end
$var wire 1 =! B~21_combout $end
$var wire 1 >! B[3]~reg0_q $end
$var wire 1 ?! B~11_combout $end
$var wire 1 @! B_in[2]~input_o $end
$var wire 1 A! WideOr1~0_combout $end
$var wire 1 B! BYTE[2]~input_o $end
$var wire 1 C! B~18_combout $end
$var wire 1 D! B~19_combout $end
$var wire 1 E! B[2]~reg0_q $end
$var wire 1 F! B~10_combout $end
$var wire 1 G! Add1~3 $end
$var wire 1 H! Add1~5 $end
$var wire 1 I! Add1~6_combout $end
$var wire 1 J! Add1~4_combout $end
$var wire 1 K! ZF~1_combout $end
$var wire 1 L! C~23_combout $end
$var wire 1 M! C~18_combout $end
$var wire 1 N! C~24_combout $end
$var wire 1 O! ZF~2_combout $end
$var wire 1 P! ZF~4_combout $end
$var wire 1 Q! Add0~1 $end
$var wire 1 R! Add0~3 $end
$var wire 1 S! Add0~5 $end
$var wire 1 T! Add0~6_combout $end
$var wire 1 U! ZF~7_combout $end
$var wire 1 V! ZF~5_combout $end
$var wire 1 W! ZF~6_combout $end
$var wire 1 X! ZF~8_combout $end
$var wire 1 Y! Add0~0_combout $end
$var wire 1 Z! Add0~4_combout $end
$var wire 1 [! Add0~2_combout $end
$var wire 1 \! ZF~9_combout $end
$var wire 1 ]! ZF~10_combout $end
$var wire 1 ^! ZF~11_combout $end
$var wire 1 _! SP[1]~20_combout $end
$var wire 1 `! Equal0~5_combout $end
$var wire 1 a! Equal0~6_combout $end
$var wire 1 b! SP~13_combout $end
$var wire 1 c! SP[0]~5_combout $end
$var wire 1 d! SP[0]~19_combout $end
$var wire 1 e! SP[0]~reg0_q $end
$var wire 1 f! SP[1]~18_combout $end
$var wire 1 g! SP[1]~reg0_q $end
$var wire 1 h! SP[2]~14_combout $end
$var wire 1 i! SP[2]~15_combout $end
$var wire 1 j! SP[2]~reg0_q $end
$var wire 1 k! SP[3]~16_combout $end
$var wire 1 l! SP[3]~17_combout $end
$var wire 1 m! SP[3]~reg0_q $end
$var wire 1 n! Add2~0_combout $end
$var wire 1 o! STACK~6_combout $end
$var wire 1 p! STACK[3][3]~feeder_combout $end
$var wire 1 q! STACK[8][2]~7_combout $end
$var wire 1 r! Decoder0~2_combout $end
$var wire 1 s! Decoder0~7_combout $end
$var wire 1 t! STACK[3][3]~q $end
$var wire 1 u! Add2~2_combout $end
$var wire 1 v! STACK[1][3]~feeder_combout $end
$var wire 1 w! Decoder0~0_combout $end
$var wire 1 x! Decoder0~9_combout $end
$var wire 1 y! STACK[1][3]~q $end
$var wire 1 z! STACK[5][3]~feeder_combout $end
$var wire 1 {! Decoder0~6_combout $end
$var wire 1 |! STACK[5][3]~q $end
$var wire 1 }! Decoder0~8_combout $end
$var wire 1 ~! STACK[7][3]~q $end
$var wire 1 !" Add2~1_combout $end
$var wire 1 "" Mux0~0_combout $end
$var wire 1 #" Mux0~1_combout $end
$var wire 1 $" STACK[0][3]~feeder_combout $end
$var wire 1 %" Decoder0~5_combout $end
$var wire 1 &" STACK[0][3]~q $end
$var wire 1 '" Decoder0~1_combout $end
$var wire 1 (" STACK[4][3]~q $end
$var wire 1 )" Decoder0~4_combout $end
$var wire 1 *" STACK[6][3]~q $end
$var wire 1 +" STACK[2][3]~feeder_combout $end
$var wire 1 ," Decoder0~3_combout $end
$var wire 1 -" STACK[2][3]~q $end
$var wire 1 ." Mux0~7_combout $end
$var wire 1 /" Mux0~8_combout $end
$var wire 1 0" Decoder0~17_combout $end
$var wire 1 1" STACK[9][3]~q $end
$var wire 1 2" STACK[11][3]~feeder_combout $end
$var wire 1 3" Decoder0~14_combout $end
$var wire 1 4" STACK[11][3]~q $end
$var wire 1 5" STACK[13][3]~feeder_combout $end
$var wire 1 6" Decoder0~15_combout $end
$var wire 1 7" STACK[13][3]~q $end
$var wire 1 8" Decoder0~16_combout $end
$var wire 1 9" STACK[15][3]~q $end
$var wire 1 :" Mux0~4_combout $end
$var wire 1 ;" Mux0~5_combout $end
$var wire 1 <" STACK[10][3]~feeder_combout $end
$var wire 1 =" Decoder0~10_combout $end
$var wire 1 >" STACK[10][3]~q $end
$var wire 1 ?" Decoder0~13_combout $end
$var wire 1 @" STACK[8][3]~q $end
$var wire 1 A" STACK[12][3]~feeder_combout $end
$var wire 1 B" Decoder0~11_combout $end
$var wire 1 C" STACK[12][3]~q $end
$var wire 1 D" Decoder0~12_combout $end
$var wire 1 E" STACK[14][3]~q $end
$var wire 1 F" Mux0~2_combout $end
$var wire 1 G" Mux0~3_combout $end
$var wire 1 H" Mux0~6_combout $end
$var wire 1 I" Mux0~9_combout $end
$var wire 1 J" STACK~5_combout $end
$var wire 1 K" STACK[1][2]~feeder_combout $end
$var wire 1 L" STACK[1][2]~q $end
$var wire 1 M" STACK[9][2]~feeder_combout $end
$var wire 1 N" STACK[9][2]~q $end
$var wire 1 O" STACK[11][2]~feeder_combout $end
$var wire 1 P" STACK[11][2]~q $end
$var wire 1 Q" STACK[3][2]~feeder_combout $end
$var wire 1 R" STACK[3][2]~q $end
$var wire 1 S" Mux1~0_combout $end
$var wire 1 T" Mux1~1_combout $end
$var wire 1 U" STACK[0][2]~feeder_combout $end
$var wire 1 V" STACK[0][2]~q $end
$var wire 1 W" STACK[8][2]~q $end
$var wire 1 X" STACK[2][2]~feeder_combout $end
$var wire 1 Y" STACK[2][2]~q $end
$var wire 1 Z" STACK[10][2]~q $end
$var wire 1 [" Mux1~7_combout $end
$var wire 1 \" Mux1~8_combout $end
$var wire 1 ]" STACK[7][2]~feeder_combout $end
$var wire 1 ^" STACK[7][2]~q $end
$var wire 1 _" STACK[5][2]~q $end
$var wire 1 `" STACK[13][2]~feeder_combout $end
$var wire 1 a" STACK[13][2]~q $end
$var wire 1 b" STACK[15][2]~q $end
$var wire 1 c" Mux1~4_combout $end
$var wire 1 d" Mux1~5_combout $end
$var wire 1 e" STACK[6][2]~feeder_combout $end
$var wire 1 f" STACK[6][2]~q $end
$var wire 1 g" STACK[4][2]~q $end
$var wire 1 h" STACK[12][2]~feeder_combout $end
$var wire 1 i" STACK[12][2]~q $end
$var wire 1 j" STACK[14][2]~q $end
$var wire 1 k" Mux1~2_combout $end
$var wire 1 l" Mux1~3_combout $end
$var wire 1 m" Mux1~6_combout $end
$var wire 1 n" Mux1~9_combout $end
$var wire 1 o" STACK~3_combout $end
$var wire 1 p" STACK[5][0]~feeder_combout $end
$var wire 1 q" STACK[5][0]~q $end
$var wire 1 r" STACK[1][0]~q $end
$var wire 1 s" STACK[3][0]~feeder_combout $end
$var wire 1 t" STACK[3][0]~q $end
$var wire 1 u" STACK[7][0]~q $end
$var wire 1 v" Mux3~2_combout $end
$var wire 1 w" Mux3~3_combout $end
$var wire 1 x" STACK[8][0]~feeder_combout $end
$var wire 1 y" STACK[8][0]~q $end
$var wire 1 z" STACK[10][0]~q $end
$var wire 1 {" STACK[12][0]~feeder_combout $end
$var wire 1 |" STACK[12][0]~q $end
$var wire 1 }" STACK[14][0]~q $end
$var wire 1 ~" Mux3~4_combout $end
$var wire 1 !# Mux3~5_combout $end
$var wire 1 "# STACK[9][0]~feeder_combout $end
$var wire 1 ## STACK[9][0]~q $end
$var wire 1 $# STACK[11][0]~q $end
$var wire 1 %# STACK[13][0]~feeder_combout $end
$var wire 1 &# STACK[13][0]~q $end
$var wire 1 '# STACK[15][0]~q $end
$var wire 1 (# Mux3~6_combout $end
$var wire 1 )# Mux3~7_combout $end
$var wire 1 *# Mux3~8_combout $end
$var wire 1 +# STACK[4][0]~feeder_combout $end
$var wire 1 ,# STACK[4][0]~q $end
$var wire 1 -# STACK[0][0]~q $end
$var wire 1 .# STACK[2][0]~feeder_combout $end
$var wire 1 /# STACK[2][0]~q $end
$var wire 1 0# STACK[6][0]~feeder_combout $end
$var wire 1 1# STACK[6][0]~q $end
$var wire 1 2# Mux3~0_combout $end
$var wire 1 3# Mux3~1_combout $end
$var wire 1 4# Mux3~9_combout $end
$var wire 1 5# STACK~4_combout $end
$var wire 1 6# STACK[1][1]~feeder_combout $end
$var wire 1 7# STACK[1][1]~q $end
$var wire 1 8# STACK[5][1]~feeder_combout $end
$var wire 1 9# STACK[5][1]~q $end
$var wire 1 :# STACK[13][1]~feeder_combout $end
$var wire 1 ;# STACK[13][1]~q $end
$var wire 1 <# STACK[9][1]~feeder_combout $end
$var wire 1 =# STACK[9][1]~q $end
$var wire 1 ># Mux2~0_combout $end
$var wire 1 ?# Mux2~1_combout $end
$var wire 1 @# STACK[0][1]~q $end
$var wire 1 A# STACK[4][1]~q $end
$var wire 1 B# STACK[8][1]~feeder_combout $end
$var wire 1 C# STACK[8][1]~q $end
$var wire 1 D# STACK[12][1]~q $end
$var wire 1 E# Mux2~7_combout $end
$var wire 1 F# Mux2~8_combout $end
$var wire 1 G# STACK[6][1]~feeder_combout $end
$var wire 1 H# STACK[6][1]~q $end
$var wire 1 I# STACK[10][1]~q $end
$var wire 1 J# STACK[14][1]~q $end
$var wire 1 K# Mux2~4_combout $end
$var wire 1 L# STACK[2][1]~q $end
$var wire 1 M# Mux2~5_combout $end
$var wire 1 N# STACK[7][1]~feeder_combout $end
$var wire 1 O# STACK[7][1]~q $end
$var wire 1 P# STACK[3][1]~q $end
$var wire 1 Q# STACK[11][1]~feeder_combout $end
$var wire 1 R# STACK[11][1]~q $end
$var wire 1 S# STACK[15][1]~q $end
$var wire 1 T# Mux2~2_combout $end
$var wire 1 U# Mux2~3_combout $end
$var wire 1 V# Mux2~6_combout $end
$var wire 1 W# Mux2~9_combout $end
$var wire 1 X# ZF~14_combout $end
$var wire 1 Y# ZF~15_combout $end
$var wire 1 Z# ZF~reg0_q $end
$var wire 1 [# IP~5_combout $end
$var wire 1 \# IP~4_combout $end
$var wire 1 ]# IP~6_combout $end
$var wire 1 ^# IP[1]~reg0_q $end
$var wire 1 _# IP~10_combout $end
$var wire 1 `# IP[3]~1_combout $end
$var wire 1 a# IP[3]~reg0_q $end
$var wire 1 b# IP~2_combout $end
$var wire 1 c# IP[0]~0_combout $end
$var wire 1 d# IP~3_combout $end
$var wire 1 e# IP[0]~reg0_q $end
$var wire 1 f# IP~7_combout $end
$var wire 1 g# IP~8_combout $end
$var wire 1 h# IP~9_combout $end
$var wire 1 i# IP[2]~reg0_q $end
$var wire 1 j# A[1]~9_combout $end
$var wire 1 k# carry~1_combout $end
$var wire 1 l# Add1~7 $end
$var wire 1 m# Add1~8_combout $end
$var wire 1 n# Add0~7 $end
$var wire 1 o# Add0~8_combout $end
$var wire 1 p# carry~0_combout $end
$var wire 1 q# carry~2_combout $end
$var wire 1 r# carry~q $end
$var wire 1 s# A[1]~10_combout $end
$var wire 1 t# A[1]~11_combout $end
$var wire 1 u# A~22_combout $end
$var wire 1 v# A~23_combout $end
$var wire 1 w# A~24_combout $end
$var wire 1 x# A~25_combout $end
$var wire 1 y# A[3]~reg0_q $end
$var wire 1 z# A~20_combout $end
$var wire 1 {# A~17_combout $end
$var wire 1 |# A~18_combout $end
$var wire 1 }# A~19_combout $end
$var wire 1 ~# A~21_combout $end
$var wire 1 !$ A[2]~reg0_q $end
$var wire 1 "$ A~15_combout $end
$var wire 1 #$ A~12_combout $end
$var wire 1 $$ A~13_combout $end
$var wire 1 %$ A~14_combout $end
$var wire 1 &$ A~16_combout $end
$var wire 1 '$ A[1]~reg0_q $end
$var wire 1 ($ A~1_combout $end
$var wire 1 )$ A~3_combout $end
$var wire 1 *$ A[0]~0_combout $end
$var wire 1 +$ A~6_combout $end
$var wire 1 ,$ A~7_combout $end
$var wire 1 -$ A~4_combout $end
$var wire 1 .$ A~5_combout $end
$var wire 1 /$ A~8_combout $end
$var wire 1 0$ A[0]~reg0_q $end
$var wire 1 1$ C~25_combout $end
$var wire 1 2$ C[2]~20_combout $end
$var wire 1 3$ C[0]~reg0_q $end
$var wire 1 4$ C~26_combout $end
$var wire 1 5$ C[1]~reg0_q $end
$var wire 1 6$ C~27_combout $end
$var wire 1 7$ C[2]~reg0_q $end
$var wire 1 8$ C~21_combout $end
$var wire 1 9$ C[3]~reg0_q $end
$var wire 1 :$ Equal0~3_combout $end
$var wire 1 ;$ HLT~0_combout $end
$var wire 1 <$ HLT~reg0_q $end
$var wire 1 =$ Equal0~4_combout $end
$var wire 1 >$ OUTPORT[0]~reg0_q $end
$var wire 1 ?$ OUTPORT[1]~reg0_q $end
$var wire 1 @$ OUTPORT[2]~reg0feeder_combout $end
$var wire 1 A$ OUTPORT[2]~reg0_q $end
$var wire 1 B$ OUTPORT[3]~reg0_q $end
$upscope $end
$upscope $end
$enddefinitions $end
#0
$dumpvars
b1010 !
b10 "
b1 #
0$
0(
0'
0&
0%
0,
0+
0*
0)
00
0/
0.
0-
04
03
02
01
05
09
08
07
06
0=
0<
0;
0:
0>
0B
0A
0@
0?
0C
0D
1E
xF
1G
1H
1I
0J
0K
0L
0M
0N
0O
0P
0Q
0R
0S
0T
0U
0V
0W
0X
0Y
0Z
0[
0\
0]
0^
0_
0`
0a
0b
0c
0d
0e
0f
0g
0h
0i
0j
1k
0l
1m
1n
0o
0p
1q
0r
0s
0t
0u
0v
0w
1x
0y
0z
1{
0|
1}
1~
0!!
1"!
1#!
0$!
1%!
0&!
0'!
1(!
0)!
1*!
1+!
0,!
0-!
0.!
0/!
00!
01!
02!
03!
04!
05!
06!
07!
08!
19!
0:!
0;!
0<!
0=!
0>!
0?!
0@!
1A!
0B!
0C!
0D!
0E!
0F!
0G!
1H!
1I!
0J!
0K!
1L!
1M!
1N!
0O!
0P!
0Q!
1R!
0S!
1T!
0U!
0V!
0W!
0X!
1Y!
0Z!
1[!
0\!
0]!
0^!
1_!
0`!
0a!
1b!
1c!
0d!
0e!
0f!
0g!
1h!
0i!
0j!
1k!
0l!
0m!
0n!
0o!
0p!
1q!
0r!
0s!
0t!
0u!
0v!
0w!
0x!
0y!
0z!
0{!
0|!
0}!
0~!
0!"
0""
0#"
0$"
0%"
0&"
0'"
0("
0)"
0*"
0+"
0,"
0-"
0."
0/"
00"
01"
02"
03"
04"
05"
06"
07"
08"
09"
0:"
0;"
0<"
0="
0>"
0?"
0@"
0A"
0B"
0C"
0D"
0E"
0F"
0G"
0H"
0I"
0J"
0K"
0L"
0M"
0N"
0O"
0P"
0Q"
0R"
0S"
0T"
0U"
0V"
0W"
0X"
0Y"
0Z"
0["
0\"
0]"
0^"
0_"
0`"
0a"
0b"
0c"
0d"
0e"
0f"
0g"
0h"
0i"
0j"
0k"
0l"
0m"
0n"
0o"
0p"
0q"
0r"
0s"
0t"
0u"
0v"
0w"
0x"
0y"
0z"
0{"
0|"
0}"
0~"
0!#
0"#
0##
0$#
0%#
0&#
0'#
0(#
0)#
0*#
0+#
0,#
0-#
0.#
0/#
00#
01#
02#
03#
04#
05#
06#
07#
08#
09#
0:#
0;#
0<#
0=#
0>#
0?#
0@#
0A#
0B#
0C#
0D#
0E#
0F#
0G#
0H#
0I#
0J#
0K#
0L#
0M#
0N#
0O#
0P#
0Q#
0R#
0S#
0T#
0U#
0V#
0W#
1X#
0Y#
0Z#
1[#
0\#
0]#
0^#
0_#
0`#
0a#
1b#
1c#
1d#
0e#
0f#
0g#
0h#
0i#
0j#
0k#
0l#
0m#
1n#
0o#
0p#
0q#
0r#
0s#
0t#
1u#
1v#
1w#
1x#
0y#
1z#
0{#
0|#
0}#
0~#
0!$
0"$
1#$
1$$
1%$
1&$
0'$
1($
1)$
0*$
1+$
1,$
0-$
1.$
1/$
00$
01$
12$
03$
04$
05$
06$
07$
08$
09$
0:$
0;$
0<$
0=$
0>$
0?$
0@$
0A$
0B$
$end
#25000
1$
1i
1j
1o
10$
1'$
1y#
1e#
1!!
1N
1]
1M
1K
1J
1w
1t#
0d#
0b#
1o"
0c!
1p
1(
1'
1%
19
10
0c#
1]#
1Q!
0Y!
15!
0#!
0$$
0#$
0v#
0u#
1*$
10#
1.#
1+#
1%#
1"#
1{"
1x"
1s"
1p"
0R!
0[!
0+$
16!
1$!
0%$
0w#
1v#
1Z!
1\!
0,$
1$$
1w#
0&$
0x#
0\!
0/$
1%$
1x#
1&$
#50000
0$
0i
0j
#75000
1$
1i
1j
00$
0e#
1^#
1^
0]
0J
0w
1/$
0)$
0t#
1d#
1b#
0o"
1|
0{
0p
1,$
1#$
1{#
1u#
1k#
0[#
15#
1&!
0(
09
18
1c#
1`#
0,$
0Q!
1Y!
05!
1#!
0}
0#$
1|#
0{#
0u#
1'!
00#
0.#
0+#
0%#
0"#
0{"
0x"
0s"
0p"
0`#
1Q#
1N#
1G#
1B#
1<#
1:#
18#
16#
1D!
1R!
1[!
1+$
06!
0$!
0$$
1}#
0|#
0v#
1C!
1<!
10!
0~
11!
0Z!
0%$
0}#
0w#
1~#
0D!
1=!
0&$
0~#
0x#
#100000
0$
0i
0j
#125000
1$
1i
1j
10$
0'$
0y#
1e#
1>!
12!
0!!
0N
1O
1Q
1]
0M
0K
1J
1w
0($
0z#
02$
0/$
1)$
1j#
1f#
0d#
0b#
1o"
0|
0q
1p
0"!
1(
0'
0%
19
1-
1/
00
0c#
0]#
1?!
14!
1,$
15!
0M!
1G!
0N!
1l#
0'!
0.$
1X!
1u#
1W!
1#$
1V!
01!
0=!
1h#
10#
1.#
1+#
1%#
1"#
1{"
1x"
1s"
1p"
1`#
1/$
16!
0H!
1J!
1m#
0C!
0<!
00!
1]!
1v#
0X!
1$$
1=!
11!
0I!
1p#
0]!
1D!
0=!
01!
#150000
0$
0i
0j
#175000
1$
1i
1j
1i#
0e#
0^#
1E!
0>!
02!
0O
0Q
1P
0^
0]
1_
1=$
1g#
0f#
1[#
1J"
0&!
1{
0p#
1d#
1b#
0o"
0p
05#
1F!
17
09
08
1.
0-
0/
0`#
0?!
04!
1C!
1Z!
0J!
0T!
1I!
0V!
0[!
0G!
06!
1h"
1e"
1`"
1]"
1X"
1U"
1Q"
1O"
1M"
1K"
0D!
1c#
00#
0.#
0+#
0%#
0"#
0{"
0x"
0s"
0p"
0Q#
0N#
0G#
0B#
0<#
0:#
08#
06#
1@$
1{#
0u#
0W!
0#$
1J!
1D!
1|#
0v#
1X!
0$$
#200000
0$
0i
0j
#225000
1$
1i
1j
1A$
1e#
1]
1c
0=$
1t#
1p#
0g#
1f#
0d#
0b#
1o"
1c!
1)!
1p
1;
19
1]#
0*!
0(!
0|#
0{#
1v#
0c#
10#
1.#
1+#
1%#
1"#
1{"
1x"
1s"
1p"
1|#
#250000
0$
0i
0j
#275000
1$
1i
1j
0e#
1^#
1^
0]
12$
0/$
0)$
0t#
1s#
0p#
1d#
1b#
0o"
0)!
0p
1#$
1{#
1u#
0[#
15#
1]!
0+!
09
18
1*!
1(!
1`#
1$$
0#$
0u#
1%$
1}#
1w#
0*$
1~#
1c#
00#
0.#
0+#
0%#
0"#
0{"
0x"
0s"
0p"
0`#
1Q#
1N#
1G#
1B#
1<#
1:#
18#
16#
0$$
0v#
0~#
#300000
0$
0i
0j
#325000
1$
1i
1j
00$
1e#
1]
0J
0w
02$
1/$
1)$
0s#
1p#
1g#
0d#
0b#
1o"
0{
1z
1p
0(
19
0]#
0,$
0Y!
0#!
0%$
0}#
0w#
1'!
1~#
0h#
0c#
10#
1.#
1+#
1%#
1"#
1{"
1x"
1s"
1p"
1`#
0/$
0+$
0C!
0~#
11!
0D!
#350000
0$
0i
0j
#375000
1$
1i
1j
0i#
0e#
1a#
0^#
0E!
12!
1O
0P
0^
1`
0]
0_
0g#
0f#
1[#
0J"
1V!
1U!
1+!
1)!
1{
0z
1t
0p#
1d#
0o"
1o!
05#
0]!
0F!
07
09
16
08
0.
1/
1c#
0(!
1h#
0`#
14!
1W!
0X!
1,!
0'!
1u
0U!
0Z!
1H!
0J!
1[!
1G!
16!
0h#
0h"
0e"
0`"
0]"
0X"
0U"
0Q"
0O"
0M"
0K"
00#
0.#
0+#
0%#
0"#
0{"
0x"
0s"
0p"
1A"
1<"
15"
12"
1+"
1$"
1z!
1v!
1p!
0Q#
0N#
0G#
0B#
0<#
0:#
08#
06#
0@$
10!
1P!
0{#
0l#
0I!
1#$
0H!
1J!
01!
0|#
0m#
1$$
1l#
1I!
11!
1m#
#400000
0$
0i
0j
#425000
1$
1i
1j
1e#
1:!
1.!
1V
1Y
1]
1t#
1p#
1_#
1o"
0q!
0c!
1`!
0_!
0)!
1q
0L!
0A!
1M!
1/!
19
1)
1,
0c#
1]#
1(!
0$$
0#$
1|#
1v#
1w!
0o"
0o!
0h!
0b!
0,!
1^!
1`#
10#
1.#
1+#
1%#
1"#
1{"
1x"
1s"
1p"
1d!
1l!
1i!
1f!
1$$
1%"
0k!
00#
0.#
0+#
0%#
0"#
0{"
0x"
0s"
0p"
0A"
0<"
05"
02"
0+"
0$"
0z!
0v!
0p!
0i!
0f!
1Y#
0l!
#450000
0$
0i
0j
#475000
1$
1i
1j
0e#
1^#
1Z#
1e!
1e
1[
1^
0]
0p#
0j#
0_#
0w!
0`!
0^!
1s
1#$
1{#
1u#
0[#
1V#
0%"
1!"
1x!
1u!
1n!
09
18
1C
1B
1c#
1f!
0d!
1%$
1}#
1w#
0x!
15#
1o!
1b!
0$$
0|#
0v#
12#
1(#
1~"
1v"
1k"
1c"
1["
1S"
1F"
1:"
1."
1""
1T#
1K#
1E#
1>#
1m"
1*#
1H"
0%$
0}#
0w#
1&$
1~#
1x#
1Q#
1N#
1G#
1B#
1<#
1:#
18#
16#
1A"
1<"
15"
12"
1+"
1$"
1z!
1v!
1p!
0f!
0&$
0~#
0x#
#500000
0$
0i
0j
#525000
1$
1i
1j
1e#
0e!
0e
1]
1p#
1j#
1f#
1_#
1o"
1w!
1a!
1^!
1)!
0s
0q
0V#
0*#
0m"
0H"
0!"
0u!
0n!
1k!
1h!
19
0B
0c#
0]#
1f!
1d!
1%"
0h!
0b!
1,!
0^!
1r
13#
02#
0(#
0~"
1w"
0v"
0k"
0c"
1\"
0["
1T"
0S"
0F"
0:"
1/"
0."
0""
0T#
0K#
0E#
0>#
1)#
1!#
1G"
1;"
1#"
1U#
1M#
1F#
1?#
1l"
1d"
1h#
10#
1.#
1+#
1%#
1"#
1{"
1x"
1s"
1p"
1l!
1i!
0k!
03#
0)#
0!#
0w"
0l"
0d"
0\"
0T"
0G"
0;"
0/"
0#"
0U#
0M#
0F#
0?#
1*#
1H"
1V#
1m"
0i!
0f!
1-$
14#
0*#
0m"
1n"
0H"
1I"
0V#
1W#
0l!
1.$
0X#
0-$
04#
0n"
1|#
0I"
1v#
0W#
1$$
0.$
1X#
0|#
0v#
0$$
#550000
0$
0i
0j
#575000
1$
1i
1j
1@#
1-#
1&"
1i#
0^#
1e!
1-!
1X
1e
0^
1_
12$
1s#
0j#
1g#
1[#
1J"
1c!
0a!
1_!
0)!
0t
1q
0#$
0{#
0u#
05#
1V#
0%"
1!"
1x!
1u!
1n!
1N!
0M!
1L!
1A!
1;!
0/!
17
08
1B
1*
1f!
0d!
1w#
1b!
0,!
0w!
0u
1^!
0r
1$$
1|#
1v#
12#
1(#
1~"
1v"
1k"
1c"
1["
1S"
1F"
1:"
1."
1""
1T#
1K#
1E#
1>#
1m"
1*#
1H"
1~#
1]#
1h"
1e"
1`"
1]"
1X"
1U"
1Q"
1O"
1M"
1K"
1d!
0f!
0Q#
0N#
0G#
0B#
0<#
0:#
08#
06#
0x!
0P!
13#
1/"
1F#
1x#
0^!
1-$
14#
1I"
1W#
1.$
0X#
1\#
0Y#
#600000
0$
0i
0j
#625000
1$
1i
1j
1!$
1y#
0e#
1^#
0Z#
0[
1^
0]
1M
1L
1"$
1z#
1/$
0s#
0p#
1j#
0g#
1b#
0o"
1#$
1{#
1u#
15#
1&
1%
09
18
0C
1}#
1Z!
0L!
1H!
0J!
1T!
0N!
0l#
0I!
0w#
0|#
0~#
0x#
1c#
00#
0.#
0+#
0%#
0"#
0{"
0x"
0s"
0p"
1Q#
1N#
1G#
1B#
1<#
1:#
18#
16#
1O!
1I!
0m#
1~#
1x#
1P!
#650000
0$
0i
0j
#675000
1$
1i
1j
1e#
1]
1:$
02$
0/$
1g#
0b#
1o"
1^!
0q
19
0^!
1;$
0c#
10#
1.#
1+#
1%#
1"#
1{"
1x"
1s"
1p"
1Y#
0Y#
#700000
0$
0i
0j
#725000
1$
1i
1j
1<$
1\
15
#750000
0$
0i
0j
#775000
1$
1i
1j
#800000
0$
0i
0j
#825000
1$
1i
1j
#850000
0$
0i
0j
#875000
1$
1i
1j
#900000
0$
0i
0j
#925000
1$
1i
1j
#950000
0$
0i
0j
#975000
1$
1i
1j
